<?xml version="1.0" encoding="utf-8"?>
<!-- Generator: Adobe Illustrator 24.0.1, SVG Export Plug-In . SVG Version: 6.00 Build 0)  -->
<svg version="1.1" id="Layer_1" xmlns="http://www.w3.org/2000/svg" xmlns:xlink="http://www.w3.org/1999/xlink" x="0px" y="0px"
	 viewBox="0 0 595.28 841.89" style="enable-background:new 0 0 595.28 841.89;" xml:space="preserve">
<style type="text/css">
	.st0{fill:#132147;}
	.st1{fill:#DDCCB0;}
	.st2{fill:#E6D4C8;}
	.st3{fill:#F9EFE5;}
</style>
<rect x="636.11" y="1024.28" class="st0" width="84.85" height="84.85"/>
<rect x="752.78" y="1024.28" class="st1" width="84.85" height="84.85"/>
<rect x="869.44" y="1024.28" class="st2" width="84.85" height="84.85"/>
<rect x="986.11" y="1024.28" class="st3" width="84.85" height="84.85"/>
<g>
	<path class="st0" d="M233.45,368.52c1.63,0,2.99,0.35,4.07,1.05c1.08,0.7,1.8,1.61,2.15,2.72c0.35,1.11,0.47,2.31,0.35,3.59
		c-0.12,1.28-0.5,2.51-1.14,3.68c0.41,0.06,0.88,0.09,1.4,0.09c1.98,0.06,4.35-0.23,7.09-0.88c2.74-0.64,4.93-1.2,6.57-1.66
		c1.63-0.47,2.45-0.56,2.45-0.26c0,0.93-2.03,1.94-6.09,3.02c-4.06,1.08-7.37,1.62-9.94,1.62c-0.99,0-1.9-0.06-2.72-0.18
		c-1.75,2.1-3.97,3.15-6.66,3.15c-1.75,0-2.83-0.76-3.24-2.28c-0.35-1.46,0.15-2.6,1.49-3.42c0.64-0.35,1.4-0.53,2.28-0.53
		c0.99,0,2.63,0.29,4.9,0.88c0.7-1.17,1.1-2.38,1.18-3.64c0.09-1.26-0.22-2.33-0.92-3.24c-0.7-0.9-1.75-1.36-3.15-1.36
		c-2.22,0-4.26,1.65-6.13,4.95c-1.87,3.3-3.4,7.43-4.6,12.39c-1.2,4.96-2.29,10.35-3.29,16.16c-0.99,5.81-1.8,11.2-2.41,16.16
		c-0.61,4.96-1.23,9.11-1.84,12.44c-0.61,3.33-1.15,4.99-1.62,4.99c-2.04,0-3.12-4.72-3.24-14.15c-0.12-9.43,0.32-19.28,1.31-29.56
		c0.99-10.28,1.98-17.31,2.98-21.11c-4.03,2.22-8.2,4.01-12.52,5.39c-4.32,1.37-8.48,2.31-12.48,2.8c-4,0.5-8.03,0.74-12.09,0.74
		c-4.06,0-7.99-0.23-11.78-0.7c-3.8-0.47-7.5-0.99-11.12-1.58c-3.62-0.58-7.15-1.18-10.6-1.8c-3.45-0.61-6.69-1.12-9.72-1.53
		c-3.04-0.41-6.01-0.58-8.93-0.53c-2.92,0.06-5.52,0.38-7.8,0.96c-1.81,0.47-2.86,0.23-3.15-0.7c-0.23-0.88,0.32-1.63,1.66-2.28
		c0.29-0.18,0.64-0.29,1.05-0.35c1.93-0.53,4.03-0.7,6.31-0.53c2.28,0.18,5.01,0.5,8.19,0.96c3.18,0.47,6.42,1.08,9.72,1.84
		c3.3,0.76,6.95,1.44,10.95,2.06c4,0.61,7.97,1.2,11.91,1.75c3.94,0.56,8.12,0.85,12.53,0.88c4.41,0.03,8.7-0.19,12.88-0.66
		c4.17-0.47,8.5-1.4,12.96-2.8c4.47-1.4,8.71-3.24,12.74-5.52c0.82-0.82,1.58-0.99,2.28-0.53c0.35,0.23,0.44,0.53,0.26,0.88
		c-0.23,0.41-0.66,2.83-1.27,7.27c-0.61,4.44-1.23,9.72-1.84,15.85c-0.61,6.13-1.17,12.2-1.66,18.22
		c-0.5,6.01-0.72,11.12-0.66,15.33c0.06,4.2,0.44,6.31,1.14,6.31c0.12,0,0.26-1.23,0.44-3.68c0.17-2.45,0.44-5.64,0.79-9.55
		c0.35-3.91,0.8-8.22,1.36-12.92c0.55-4.7,1.33-9.42,2.32-14.15c0.99-4.73,2.13-9.04,3.42-12.92c1.28-3.88,2.92-7.05,4.91-9.5
		C228.86,369.75,231.05,368.52,233.45,368.52z M231.52,380.35c-1.05,0-1.55,0.32-1.49,0.96c0,0.58,0.44,0.88,1.31,0.88
		c1.34,0,2.54-0.47,3.59-1.4C233.71,380.49,232.57,380.35,231.52,380.35z"/>
	<path class="st0" d="M274.79,368.61c1.63,0,2.98,0.35,4.03,1.05c1.05,0.7,1.77,1.61,2.15,2.72c0.38,1.11,0.49,2.31,0.35,3.59
		c-0.15,1.28-0.51,2.51-1.09,3.68c0.41,0.06,0.88,0.09,1.4,0.09c1.93,0.06,4.26-0.23,7.01-0.88c2.74-0.64,4.93-1.2,6.57-1.66
		c1.63-0.47,2.45-0.55,2.45-0.26c0,0.93-2.01,1.94-6.04,3.02c-4.03,1.08-7.33,1.62-9.9,1.62c-0.99,0-1.9-0.06-2.72-0.17
		c-1.81,2.1-4.03,3.15-6.66,3.15c-1.75,0-2.83-0.76-3.24-2.28c-0.35-1.46,0.14-2.6,1.49-3.42c0.64-0.35,1.4-0.53,2.28-0.53
		c0.99,0,2.6,0.29,4.82,0.88c0.7-1.17,1.11-2.38,1.23-3.64c0.12-1.25-0.17-2.33-0.88-3.24c-0.7-0.9-1.75-1.36-3.15-1.36
		c-2.22,0-4.26,1.65-6.13,4.95c-1.87,3.3-3.4,7.43-4.6,12.39c-1.2,4.96-2.31,10.35-3.33,16.16c-1.02,5.81-1.83,11.2-2.41,16.16
		c-0.58,4.96-1.18,9.11-1.8,12.44c-0.61,3.33-1.15,4.99-1.62,4.99c-1.34,0-2.28-2.15-2.8-6.44c-0.53-4.29-0.67-9.53-0.44-15.72
		c0.23-6.19,0.61-12.47,1.14-18.83c0.53-6.37,1.14-11.96,1.84-16.77c0.7-4.82,1.31-7.66,1.84-8.54c0.93-0.93,1.75-1.14,2.45-0.61
		c0.35,0.23,0.44,0.53,0.26,0.88c-0.23,0.41-0.66,2.83-1.27,7.27c-0.61,4.44-1.24,9.72-1.88,15.85c-0.64,6.13-1.2,12.2-1.66,18.22
		c-0.47,6.01-0.69,11.12-0.66,15.33c0.03,4.2,0.43,6.31,1.18,6.31c0.12,0,0.26-1.23,0.44-3.68c0.18-2.45,0.44-5.64,0.79-9.55
		c0.35-3.91,0.8-8.22,1.36-12.92c0.55-4.7,1.33-9.42,2.32-14.15c0.99-4.73,2.13-9.04,3.42-12.92c1.28-3.88,2.92-7.05,4.9-9.5
		C270.2,369.83,272.39,368.61,274.79,368.61z M272.86,380.43c-1.05,0-1.58,0.32-1.58,0.96c0.06,0.58,0.53,0.88,1.4,0.88
		c1.34,0,2.54-0.47,3.59-1.4C275.05,380.58,273.91,380.43,272.86,380.43z"/>
	<path class="st0" d="M335.31,387.61c-1.63-0.88-3.27-2.19-4.9-3.94c-1.64-1.75-2.96-3.4-3.99-4.95c-1.02-1.55-2.12-2.92-3.28-4.12
		c-1.17-1.2-2.22-1.8-3.15-1.8c-1.11,0-2.41,0.72-3.9,2.15c-1.49,1.43-2.83,2.99-4.03,4.69c-1.2,1.69-2.54,3.25-4.03,4.69
		c-1.49,1.43-2.79,2.12-3.9,2.06c-2.28-0.12-4.15-1.65-5.61-4.6c-1.46-2.95-2.13-5.66-2.01-8.15c0.12-2.48,0.53-3.93,1.23-4.34
		c0.53,0,0.95,0.73,1.27,2.19c0.32,1.46,0.6,3.05,0.83,4.77c0.23,1.72,0.71,3.3,1.45,4.73c0.73,1.43,1.68,2.15,2.85,2.15
		c0.82,0,1.87-0.69,3.15-2.06c1.28-1.37,2.53-2.9,3.72-4.6c1.2-1.69,2.63-3.24,4.29-4.64c1.66-1.4,3.23-2.1,4.69-2.1
		c1.69,0,3.24,0.64,4.64,1.93c1.4,1.28,2.52,2.76,3.37,4.42c0.85,1.66,1.96,3.49,3.33,5.47c1.37,1.98,2.82,3.47,4.34,4.47
		c2.8,1.87,6.38,3.02,10.73,3.46c4.35,0.44,9.02,0.32,14.01-0.35c4.99-0.67,10.32-1.58,15.99-2.72c5.66-1.14,11.53-2.23,17.6-3.28
		c6.07-1.05,12.01-1.87,17.82-2.45c5.81-0.58,11.71-0.54,17.69,0.13c5.98,0.67,11.4,2.06,16.25,4.16c0.7,0.35,1.11,0.83,1.23,1.45
		c0.12,0.61-0.06,1.06-0.53,1.36c-0.47,0.29-1.14,0.26-2.01-0.09c-4.73-2.22-9.96-3.72-15.68-4.51c-5.72-0.79-11.37-0.96-16.95-0.53
		c-5.58,0.44-11.27,1.12-17.08,2.06c-5.81,0.93-11.5,1.93-17.08,2.98c-5.58,1.05-10.88,1.9-15.9,2.54
		c-5.02,0.64-9.85,0.79-14.5,0.44C342.62,390.33,338.64,389.31,335.31,387.61z"/>
</g>
<g>
	<path class="st0" d="M274.43,2109.98c1.63,0,2.99,0.35,4.07,1.05c1.08,0.7,1.8,1.61,2.15,2.72c0.35,1.11,0.47,2.31,0.35,3.59
		c-0.12,1.28-0.5,2.51-1.14,3.68c0.41,0.06,0.88,0.09,1.4,0.09c1.98,0.06,4.35-0.23,7.09-0.88c2.74-0.64,4.93-1.2,6.57-1.66
		c1.63-0.47,2.45-0.55,2.45-0.26c0,0.93-2.03,1.94-6.09,3.02c-4.06,1.08-7.37,1.62-9.94,1.62c-0.99,0-1.9-0.06-2.72-0.18
		c-1.75,2.1-3.97,3.15-6.66,3.15c-1.75,0-2.83-0.76-3.24-2.28c-0.35-1.46,0.15-2.6,1.49-3.42c0.64-0.35,1.4-0.53,2.28-0.53
		c0.99,0,2.63,0.29,4.9,0.88c0.7-1.17,1.1-2.38,1.18-3.64c0.09-1.26-0.22-2.33-0.92-3.24c-0.7-0.9-1.75-1.36-3.15-1.36
		c-2.22,0-4.26,1.65-6.13,4.95c-1.87,3.3-3.4,7.43-4.6,12.39c-1.2,4.96-2.29,10.35-3.29,16.16c-0.99,5.81-1.8,11.2-2.41,16.16
		c-0.61,4.96-1.23,9.11-1.84,12.44c-0.61,3.33-1.15,4.99-1.62,4.99c-2.04,0-3.12-4.72-3.24-14.15c-0.12-9.43,0.32-19.28,1.31-29.56
		c0.99-10.28,1.98-17.31,2.98-21.11c-4.03,2.22-8.2,4.01-12.52,5.39c-4.32,1.37-8.48,2.31-12.48,2.8c-4,0.5-8.03,0.74-12.09,0.74
		c-4.06,0-7.99-0.23-11.78-0.7c-3.8-0.47-7.5-0.99-11.12-1.58c-3.62-0.58-7.15-1.18-10.6-1.8c-3.45-0.61-6.69-1.12-9.72-1.53
		c-3.04-0.41-6.01-0.58-8.93-0.53c-2.92,0.06-5.52,0.38-7.8,0.96c-1.81,0.47-2.86,0.23-3.15-0.7c-0.23-0.88,0.32-1.63,1.66-2.28
		c0.29-0.18,0.64-0.29,1.05-0.35c1.93-0.53,4.03-0.7,6.31-0.53c2.28,0.18,5.01,0.5,8.19,0.96c3.18,0.47,6.42,1.08,9.72,1.84
		c3.3,0.76,6.95,1.44,10.95,2.06c4,0.61,7.97,1.2,11.91,1.75c3.94,0.56,8.12,0.85,12.53,0.88c4.41,0.03,8.7-0.19,12.88-0.66
		c4.17-0.47,8.5-1.4,12.96-2.8c4.47-1.4,8.71-3.24,12.74-5.52c0.82-0.82,1.58-0.99,2.28-0.53c0.35,0.23,0.44,0.53,0.26,0.88
		c-0.23,0.41-0.66,2.83-1.27,7.27c-0.61,4.44-1.23,9.72-1.84,15.85c-0.61,6.13-1.17,12.2-1.66,18.22
		c-0.5,6.01-0.72,11.12-0.66,15.33c0.06,4.2,0.44,6.31,1.14,6.31c0.12,0,0.26-1.23,0.44-3.68c0.17-2.45,0.44-5.64,0.79-9.55
		c0.35-3.91,0.8-8.22,1.36-12.92c0.55-4.7,1.33-9.42,2.32-14.15c0.99-4.73,2.13-9.04,3.42-12.92c1.28-3.88,2.92-7.05,4.91-9.5
		C269.85,2111.2,272.03,2109.98,274.43,2109.98z M272.5,2121.8c-1.05,0-1.55,0.32-1.49,0.96c0,0.58,0.44,0.88,1.31,0.88
		c1.34,0,2.54-0.47,3.59-1.4C274.69,2121.95,273.55,2121.8,272.5,2121.8z"/>
	<path class="st0" d="M315.77,2110.06c1.63,0,2.98,0.35,4.03,1.05c1.05,0.7,1.77,1.61,2.15,2.72c0.38,1.11,0.49,2.31,0.35,3.59
		c-0.15,1.28-0.51,2.51-1.09,3.68c0.41,0.06,0.88,0.09,1.4,0.09c1.93,0.06,4.26-0.23,7.01-0.88c2.74-0.64,4.93-1.2,6.57-1.66
		c1.63-0.47,2.45-0.55,2.45-0.26c0,0.93-2.01,1.94-6.04,3.02c-4.03,1.08-7.33,1.62-9.9,1.62c-0.99,0-1.9-0.06-2.72-0.17
		c-1.81,2.1-4.03,3.15-6.66,3.15c-1.75,0-2.83-0.76-3.24-2.28c-0.35-1.46,0.14-2.6,1.49-3.42c0.64-0.35,1.4-0.53,2.28-0.53
		c0.99,0,2.6,0.29,4.82,0.88c0.7-1.17,1.11-2.38,1.23-3.64c0.12-1.25-0.17-2.33-0.88-3.24c-0.7-0.9-1.75-1.36-3.15-1.36
		c-2.22,0-4.26,1.65-6.13,4.95c-1.87,3.3-3.4,7.43-4.6,12.39c-1.2,4.96-2.31,10.35-3.33,16.16c-1.02,5.81-1.83,11.2-2.41,16.16
		c-0.58,4.96-1.18,9.11-1.8,12.44c-0.61,3.33-1.15,4.99-1.62,4.99c-1.34,0-2.28-2.15-2.8-6.44c-0.53-4.29-0.67-9.53-0.44-15.72
		c0.23-6.19,0.61-12.47,1.14-18.83c0.53-6.37,1.14-11.96,1.84-16.77c0.7-4.82,1.31-7.66,1.84-8.54c0.93-0.93,1.75-1.14,2.45-0.61
		c0.35,0.23,0.44,0.53,0.26,0.88c-0.23,0.41-0.66,2.83-1.27,7.27c-0.61,4.44-1.24,9.72-1.88,15.85c-0.64,6.13-1.2,12.2-1.66,18.22
		c-0.47,6.01-0.69,11.12-0.66,15.33c0.03,4.2,0.43,6.31,1.18,6.31c0.12,0,0.26-1.23,0.44-3.68c0.18-2.45,0.44-5.64,0.79-9.55
		c0.35-3.91,0.8-8.22,1.36-12.92c0.55-4.7,1.33-9.42,2.32-14.15c0.99-4.73,2.13-9.04,3.42-12.92c1.28-3.88,2.92-7.05,4.9-9.5
		C311.19,2111.29,313.38,2110.06,315.77,2110.06z M313.84,2121.89c-1.05,0-1.58,0.32-1.58,0.96c0.06,0.58,0.53,0.88,1.4,0.88
		c1.34,0,2.54-0.47,3.59-1.4C316.03,2122.04,314.89,2121.89,313.84,2121.89z"/>
	<path class="st0" d="M376.29,2129.07c-1.63-0.88-3.27-2.19-4.9-3.94c-1.64-1.75-2.96-3.4-3.99-4.95c-1.02-1.55-2.12-2.92-3.28-4.12
		c-1.17-1.2-2.22-1.8-3.15-1.8c-1.11,0-2.41,0.72-3.9,2.15c-1.49,1.43-2.83,2.99-4.03,4.69c-1.2,1.69-2.54,3.25-4.03,4.69
		c-1.49,1.43-2.79,2.12-3.9,2.06c-2.28-0.12-4.15-1.65-5.61-4.6c-1.46-2.95-2.13-5.66-2.01-8.15c0.12-2.48,0.53-3.93,1.23-4.34
		c0.53,0,0.95,0.73,1.27,2.19c0.32,1.46,0.6,3.05,0.83,4.77c0.23,1.72,0.71,3.3,1.45,4.73c0.73,1.43,1.68,2.15,2.85,2.15
		c0.82,0,1.87-0.69,3.15-2.06c1.28-1.37,2.53-2.9,3.72-4.6c1.2-1.69,2.63-3.24,4.29-4.64c1.66-1.4,3.23-2.1,4.69-2.1
		c1.69,0,3.24,0.64,4.64,1.93c1.4,1.28,2.52,2.76,3.37,4.42c0.85,1.66,1.96,3.49,3.33,5.47c1.37,1.98,2.82,3.47,4.34,4.47
		c2.8,1.87,6.38,3.02,10.73,3.46c4.35,0.44,9.02,0.32,14.01-0.35c4.99-0.67,10.32-1.58,15.99-2.72c5.66-1.14,11.53-2.23,17.6-3.28
		c6.07-1.05,12.01-1.87,17.82-2.45c5.81-0.58,11.71-0.54,17.69,0.13c5.98,0.67,11.4,2.06,16.25,4.16c0.7,0.35,1.11,0.83,1.23,1.45
		c0.12,0.61-0.06,1.06-0.53,1.36c-0.47,0.29-1.14,0.26-2.01-0.09c-4.73-2.22-9.96-3.72-15.68-4.51c-5.72-0.79-11.37-0.96-16.95-0.53
		c-5.58,0.44-11.27,1.12-17.08,2.06c-5.81,0.93-11.5,1.93-17.08,2.98c-5.58,1.05-10.88,1.9-15.9,2.54
		c-5.02,0.64-9.85,0.79-14.5,0.44C383.61,2131.79,379.62,2130.76,376.29,2129.07z"/>
</g>
<g>
	<path class="st2" d="M264.98,2996.41c1.63,0,2.99,0.35,4.07,1.05c1.08,0.7,1.8,1.61,2.15,2.72c0.35,1.11,0.47,2.31,0.35,3.59
		c-0.12,1.28-0.5,2.51-1.14,3.68c0.41,0.06,0.88,0.09,1.4,0.09c1.98,0.06,4.35-0.23,7.09-0.88c2.74-0.64,4.93-1.2,6.57-1.66
		c1.63-0.47,2.45-0.55,2.45-0.26c0,0.93-2.03,1.94-6.09,3.02c-4.06,1.08-7.37,1.62-9.94,1.62c-0.99,0-1.9-0.06-2.72-0.18
		c-1.75,2.1-3.97,3.15-6.66,3.15c-1.75,0-2.83-0.76-3.24-2.28c-0.35-1.46,0.15-2.6,1.49-3.42c0.64-0.35,1.4-0.53,2.28-0.53
		c0.99,0,2.63,0.29,4.9,0.88c0.7-1.17,1.1-2.38,1.18-3.64c0.09-1.26-0.22-2.33-0.92-3.24c-0.7-0.9-1.75-1.36-3.15-1.36
		c-2.22,0-4.26,1.65-6.13,4.95c-1.87,3.3-3.4,7.43-4.6,12.39c-1.2,4.96-2.29,10.35-3.29,16.16c-0.99,5.81-1.8,11.2-2.41,16.16
		c-0.61,4.96-1.23,9.11-1.84,12.44c-0.61,3.33-1.15,4.99-1.62,4.99c-2.04,0-3.12-4.72-3.24-14.15c-0.12-9.43,0.32-19.28,1.31-29.56
		c0.99-10.28,1.98-17.31,2.98-21.11c-4.03,2.22-8.2,4.01-12.52,5.39c-4.32,1.37-8.48,2.31-12.48,2.8c-4,0.5-8.03,0.74-12.09,0.74
		c-4.06,0-7.99-0.23-11.78-0.7c-3.8-0.47-7.5-0.99-11.12-1.58c-3.62-0.58-7.15-1.18-10.6-1.8c-3.45-0.61-6.69-1.12-9.72-1.53
		c-3.04-0.41-6.01-0.58-8.93-0.53c-2.92,0.06-5.52,0.38-7.8,0.96c-1.81,0.47-2.86,0.23-3.15-0.7c-0.23-0.88,0.32-1.63,1.66-2.28
		c0.29-0.18,0.64-0.29,1.05-0.35c1.93-0.53,4.03-0.7,6.31-0.53c2.28,0.18,5.01,0.5,8.19,0.96c3.18,0.47,6.42,1.08,9.72,1.84
		c3.3,0.76,6.95,1.44,10.95,2.06c4,0.61,7.97,1.2,11.91,1.75c3.94,0.56,8.12,0.85,12.53,0.88c4.41,0.03,8.7-0.19,12.88-0.66
		c4.17-0.47,8.5-1.4,12.96-2.8c4.47-1.4,8.71-3.24,12.74-5.52c0.82-0.82,1.58-0.99,2.28-0.53c0.35,0.23,0.44,0.53,0.26,0.88
		c-0.23,0.41-0.66,2.83-1.27,7.27c-0.61,4.44-1.23,9.72-1.84,15.85c-0.61,6.13-1.17,12.2-1.66,18.22
		c-0.5,6.01-0.72,11.12-0.66,15.33c0.06,4.2,0.44,6.31,1.14,6.31c0.12,0,0.26-1.23,0.44-3.68c0.17-2.45,0.44-5.64,0.79-9.55
		c0.35-3.91,0.8-8.22,1.36-12.92c0.55-4.7,1.33-9.42,2.32-14.15c0.99-4.73,2.13-9.04,3.42-12.92c1.28-3.88,2.92-7.05,4.91-9.5
		C260.39,2997.64,262.58,2996.41,264.98,2996.41z M263.05,3008.24c-1.05,0-1.55,0.32-1.49,0.96c0,0.58,0.44,0.88,1.31,0.88
		c1.34,0,2.54-0.47,3.59-1.4C265.24,3008.38,264.1,3008.24,263.05,3008.24z"/>
	<path class="st2" d="M306.32,2996.5c1.63,0,2.98,0.35,4.03,1.05c1.05,0.7,1.77,1.61,2.15,2.72c0.38,1.11,0.49,2.31,0.35,3.59
		c-0.15,1.28-0.51,2.51-1.09,3.68c0.41,0.06,0.88,0.09,1.4,0.09c1.93,0.06,4.26-0.23,7.01-0.88c2.74-0.64,4.93-1.2,6.57-1.66
		c1.63-0.47,2.45-0.55,2.45-0.26c0,0.93-2.01,1.94-6.04,3.02c-4.03,1.08-7.33,1.62-9.9,1.62c-0.99,0-1.9-0.06-2.72-0.17
		c-1.81,2.1-4.03,3.15-6.66,3.15c-1.75,0-2.83-0.76-3.24-2.28c-0.35-1.46,0.14-2.6,1.49-3.42c0.64-0.35,1.4-0.53,2.28-0.53
		c0.99,0,2.6,0.29,4.82,0.88c0.7-1.17,1.11-2.38,1.23-3.64c0.12-1.25-0.17-2.33-0.88-3.24c-0.7-0.9-1.75-1.36-3.15-1.36
		c-2.22,0-4.26,1.65-6.13,4.95c-1.87,3.3-3.4,7.43-4.6,12.39c-1.2,4.96-2.31,10.35-3.33,16.16c-1.02,5.81-1.83,11.2-2.41,16.16
		c-0.58,4.96-1.18,9.11-1.8,12.44c-0.61,3.33-1.15,4.99-1.62,4.99c-1.34,0-2.28-2.15-2.8-6.44c-0.53-4.29-0.67-9.53-0.44-15.72
		c0.23-6.19,0.61-12.47,1.14-18.83c0.53-6.37,1.14-11.96,1.84-16.77c0.7-4.82,1.31-7.66,1.84-8.54c0.93-0.93,1.75-1.14,2.45-0.61
		c0.35,0.23,0.44,0.53,0.26,0.88c-0.23,0.41-0.66,2.83-1.27,7.27c-0.61,4.44-1.24,9.72-1.88,15.85c-0.64,6.13-1.2,12.2-1.66,18.22
		c-0.47,6.01-0.69,11.12-0.66,15.33c0.03,4.2,0.43,6.31,1.18,6.31c0.12,0,0.26-1.23,0.44-3.68c0.18-2.45,0.44-5.64,0.79-9.55
		c0.35-3.91,0.8-8.22,1.36-12.92c0.55-4.7,1.33-9.42,2.32-14.15c0.99-4.73,2.13-9.04,3.42-12.92c1.28-3.88,2.92-7.05,4.9-9.5
		C301.73,2997.72,303.92,2996.5,306.32,2996.5z M304.39,3008.32c-1.05,0-1.58,0.32-1.58,0.96c0.06,0.58,0.53,0.88,1.4,0.88
		c1.34,0,2.54-0.47,3.59-1.4C306.58,3008.47,305.44,3008.32,304.39,3008.32z"/>
	<path class="st2" d="M366.84,3015.51c-1.63-0.88-3.27-2.19-4.9-3.94c-1.64-1.75-2.96-3.4-3.99-4.95c-1.02-1.55-2.12-2.92-3.28-4.12
		c-1.17-1.2-2.22-1.8-3.15-1.8c-1.11,0-2.41,0.72-3.9,2.15c-1.49,1.43-2.83,2.99-4.03,4.69c-1.2,1.69-2.54,3.25-4.03,4.69
		c-1.49,1.43-2.79,2.12-3.9,2.06c-2.28-0.12-4.15-1.65-5.61-4.6c-1.46-2.95-2.13-5.66-2.01-8.15c0.12-2.48,0.53-3.93,1.23-4.34
		c0.53,0,0.95,0.73,1.27,2.19c0.32,1.46,0.6,3.05,0.83,4.77c0.23,1.72,0.71,3.3,1.45,4.73c0.73,1.43,1.68,2.15,2.85,2.15
		c0.82,0,1.87-0.69,3.15-2.06c1.28-1.37,2.53-2.9,3.72-4.6c1.2-1.69,2.63-3.24,4.29-4.64c1.66-1.4,3.23-2.1,4.69-2.1
		c1.69,0,3.24,0.64,4.64,1.93c1.4,1.28,2.52,2.76,3.37,4.42c0.85,1.66,1.96,3.49,3.33,5.47c1.37,1.98,2.82,3.47,4.34,4.47
		c2.8,1.87,6.38,3.02,10.73,3.46c4.35,0.44,9.02,0.32,14.01-0.35c4.99-0.67,10.32-1.58,15.99-2.72c5.66-1.14,11.53-2.23,17.6-3.28
		c6.07-1.05,12.01-1.87,17.82-2.45c5.81-0.58,11.71-0.54,17.69,0.13c5.98,0.67,11.4,2.06,16.25,4.16c0.7,0.35,1.11,0.83,1.23,1.45
		c0.12,0.61-0.06,1.06-0.53,1.36c-0.47,0.29-1.14,0.26-2.01-0.09c-4.73-2.22-9.96-3.72-15.68-4.51c-5.72-0.79-11.37-0.96-16.95-0.53
		c-5.58,0.44-11.27,1.12-17.08,2.06c-5.81,0.93-11.5,1.93-17.08,2.98c-5.58,1.05-10.88,1.9-15.9,2.54
		c-5.02,0.64-9.85,0.79-14.5,0.44C374.16,3018.22,370.17,3017.2,366.84,3015.51z"/>
</g>
<g>
	<path class="st0" d="M328.96,419.78c-0.91,0.85-2.29,1.28-4.11,1.28h-3.28v6.92h-1.63v-16.24h4.9c1.81,0,3.18,0.43,4.1,1.28
		c0.92,0.85,1.38,1.98,1.38,3.39C330.33,417.8,329.88,418.93,328.96,419.78z M328.66,416.41c0-1.08-0.3-1.91-0.91-2.46
		c-0.6-0.56-1.57-0.84-2.9-0.84h-3.28v6.55h3.28C327.39,419.66,328.66,418.58,328.66,416.41z"/>
	<path class="st0" d="M336.32,415.71c0.73-0.43,1.64-0.65,2.71-0.65v1.7h-0.44c-1.18,0-2.12,0.32-2.83,0.95
		c-0.71,0.64-1.07,1.7-1.07,3.18v7.09h-1.63v-12.69h1.63v2.25C335.04,416.76,335.58,416.15,336.32,415.71z"/>
	<path class="st0" d="M341.44,412.55c-0.23-0.23-0.35-0.52-0.35-0.86c0-0.34,0.12-0.62,0.35-0.85c0.23-0.22,0.51-0.34,0.84-0.34
		c0.32,0,0.6,0.11,0.84,0.34c0.23,0.22,0.35,0.51,0.35,0.85c0,0.34-0.12,0.63-0.35,0.86c-0.23,0.23-0.51,0.35-0.84,0.35
		C341.95,412.9,341.67,412.78,341.44,412.55z M343.09,415.29v12.69h-1.63v-12.69H343.09z"/>
	<path class="st0" d="M356.45,416.47c0.96,0.94,1.44,2.3,1.44,4.08v7.44h-1.6v-7.25c0-1.38-0.34-2.43-1.03-3.16
		c-0.69-0.73-1.63-1.09-2.82-1.09c-1.22,0-2.2,0.39-2.93,1.16c-0.73,0.77-1.09,1.91-1.09,3.42v6.92h-1.63v-12.69h1.63v2.16
		c0.4-0.77,0.98-1.37,1.74-1.78c0.76-0.41,1.62-0.62,2.58-0.62C354.25,415.06,355.49,415.53,356.45,416.47z"/>
	<path class="st0" d="M363.61,416.66v7.88c0,0.77,0.15,1.31,0.44,1.6c0.29,0.29,0.81,0.44,1.56,0.44h1.49v1.39h-1.74
		c-1.15,0-2-0.27-2.56-0.8c-0.56-0.53-0.84-1.41-0.84-2.64v-7.88h-1.77v-1.37h1.77v-3.18h1.65v3.18h3.49v1.37H363.61z"/>
	<path class="st0" d="M373.28,415.96c0.87-0.57,1.92-0.85,3.12-0.85c1.15,0,2.18,0.27,3.1,0.8c0.92,0.53,1.64,1.29,2.16,2.28
		c0.52,0.98,0.78,2.13,0.78,3.43c0,1.3-0.26,2.45-0.78,3.44c-0.52,0.99-1.24,1.76-2.16,2.3c-0.92,0.54-1.96,0.81-3.1,0.81
		c-1.19,0-2.23-0.28-3.11-0.85c-0.88-0.57-1.53-1.27-1.93-2.13v8.78h-1.6v-18.68h1.6v2.79
		C371.77,417.23,372.41,416.52,373.28,415.96z M380.18,418.88c-0.41-0.77-0.97-1.35-1.68-1.75c-0.71-0.4-1.52-0.6-2.42-0.6
		c-0.87,0-1.66,0.21-2.38,0.63c-0.72,0.42-1.29,1.01-1.71,1.79c-0.42,0.77-0.63,1.67-0.63,2.7c0,1.02,0.21,1.92,0.63,2.69
		c0.42,0.77,0.99,1.37,1.71,1.79c0.72,0.42,1.51,0.63,2.38,0.63c0.9,0,1.7-0.2,2.42-0.62c0.71-0.41,1.27-1.01,1.68-1.79
		c0.41-0.78,0.62-1.69,0.62-2.73C380.8,420.56,380.59,419.65,380.18,418.88z"/>
	<path class="st0" d="M385.42,412.55c-0.23-0.23-0.35-0.52-0.35-0.86c0-0.34,0.12-0.62,0.35-0.85c0.23-0.22,0.51-0.34,0.84-0.34
		c0.32,0,0.6,0.11,0.84,0.34c0.23,0.22,0.35,0.51,0.35,0.85c0,0.34-0.12,0.63-0.35,0.86c-0.23,0.23-0.51,0.35-0.84,0.35
		C385.93,412.9,385.66,412.78,385.42,412.55z M387.07,415.29v12.69h-1.63v-12.69H387.07z"/>
	<path class="st0" d="M390.81,418.19c0.53-0.98,1.25-1.74,2.18-2.28c0.93-0.53,1.99-0.8,3.18-0.8c1.56,0,2.85,0.39,3.87,1.16
		c1.01,0.77,1.67,1.83,1.96,3.16h-1.74c-0.22-0.91-0.69-1.63-1.41-2.15s-1.61-0.78-2.68-0.78c-0.85,0-1.62,0.19-2.3,0.58
		c-0.68,0.39-1.22,0.96-1.61,1.73c-0.4,0.77-0.59,1.71-0.59,2.82c0,1.12,0.2,2.06,0.59,2.83c0.4,0.77,0.93,1.36,1.61,1.74
		c0.68,0.39,1.45,0.58,2.3,0.58c1.07,0,1.96-0.26,2.68-0.78c0.72-0.52,1.19-1.24,1.41-2.17h1.74c-0.29,1.3-0.95,2.35-1.98,3.14
		c-1.02,0.79-2.31,1.18-3.86,1.18c-1.19,0-2.25-0.27-3.18-0.8c-0.93-0.53-1.66-1.29-2.18-2.28c-0.53-0.98-0.79-2.13-0.79-3.45
		C390.02,420.32,390.29,419.17,390.81,418.19z"/>
	<path class="st0" d="M405.81,427.15c-0.92-0.67-1.44-1.59-1.55-2.75h1.67c0.08,0.71,0.41,1.29,1.01,1.73
		c0.6,0.44,1.4,0.66,2.41,0.66c0.88,0,1.58-0.21,2.08-0.63c0.5-0.42,0.75-0.94,0.75-1.56c0-0.43-0.14-0.79-0.42-1.07
		s-0.63-0.5-1.06-0.66c-0.43-0.16-1-0.34-1.73-0.52c-0.94-0.25-1.71-0.5-2.3-0.74c-0.59-0.25-1.09-0.62-1.5-1.1
		c-0.41-0.49-0.62-1.14-0.62-1.96c0-0.62,0.19-1.19,0.56-1.72c0.37-0.53,0.9-0.94,1.58-1.25c0.68-0.31,1.46-0.46,2.32-0.46
		c1.36,0,2.46,0.34,3.3,1.03c0.84,0.69,1.29,1.64,1.35,2.85h-1.63c-0.05-0.74-0.34-1.34-0.87-1.8c-0.54-0.46-1.27-0.69-2.2-0.69
		c-0.82,0-1.49,0.19-2,0.58c-0.51,0.39-0.77,0.87-0.77,1.44c0,0.5,0.15,0.9,0.45,1.22c0.3,0.32,0.68,0.57,1.13,0.74
		c0.45,0.18,1.05,0.38,1.81,0.59c0.91,0.25,1.64,0.49,2.18,0.72c0.54,0.23,1.01,0.57,1.39,1.02c0.39,0.45,0.59,1.05,0.6,1.79
		c0,0.68-0.19,1.29-0.56,1.82c-0.37,0.53-0.89,0.96-1.56,1.27c-0.67,0.31-1.43,0.46-2.3,0.46
		C407.92,428.17,406.73,427.83,405.81,427.15z"/>
	<path class="st0" d="M426.52,416.47c0.96,0.94,1.44,2.3,1.44,4.08v7.44h-1.6v-7.25c0-1.38-0.34-2.43-1.03-3.16
		c-0.69-0.73-1.63-1.09-2.82-1.09c-1.22,0-2.2,0.39-2.93,1.16c-0.73,0.77-1.09,1.91-1.09,3.42v6.92h-1.63v-12.69h1.63v2.16
		c0.4-0.77,0.98-1.37,1.74-1.78c0.76-0.41,1.62-0.62,2.58-0.62C424.33,415.06,425.56,415.53,426.52,416.47z"/>
	<path class="st0" d="M433.9,427.36c-0.95-0.53-1.7-1.29-2.25-2.28c-0.55-0.98-0.82-2.13-0.82-3.45c0-1.32,0.28-2.47,0.84-3.45
		c0.56-0.98,1.32-1.74,2.28-2.28c0.96-0.53,2.04-0.8,3.23-0.8c1.19,0,2.27,0.27,3.24,0.8c0.97,0.53,1.73,1.29,2.28,2.28
		c0.55,0.98,0.82,2.13,0.82,3.45c0,1.3-0.28,2.45-0.84,3.44c-0.56,0.99-1.32,1.75-2.3,2.29c-0.98,0.53-2.06,0.8-3.25,0.8
		S434.85,427.9,433.9,427.36z M439.44,426.18c0.71-0.38,1.29-0.95,1.73-1.72c0.44-0.77,0.66-1.71,0.66-2.82
		c0-1.12-0.22-2.06-0.65-2.82c-0.43-0.77-1.01-1.34-1.72-1.72c-0.71-0.38-1.49-0.57-2.32-0.57s-1.61,0.19-2.32,0.57
		c-0.71,0.38-1.28,0.95-1.71,1.72c-0.43,0.77-0.64,1.71-0.64,2.82c0,1.12,0.21,2.06,0.64,2.82c0.43,0.77,0.99,1.34,1.7,1.72
		s1.48,0.57,2.31,0.57C437.96,426.75,438.73,426.56,439.44,426.18z"/>
	<path class="st0" d="M463.21,415.29l-3.97,12.69h-1.63l-3.51-10.64l-3.51,10.64h-1.65l-3.97-12.69h1.65l3.16,11.04l3.56-11.04h1.63
		l3.51,11.06l3.14-11.06H463.21z"/>
</g>
<g>
	<path class="st2" d="M233.45,1234.89c1.63,0,2.99,0.35,4.07,1.05c1.08,0.7,1.8,1.61,2.15,2.72c0.35,1.11,0.47,2.31,0.35,3.59
		c-0.12,1.28-0.5,2.51-1.14,3.68c0.41,0.06,0.88,0.09,1.4,0.09c1.98,0.06,4.35-0.23,7.09-0.88c2.74-0.64,4.93-1.2,6.57-1.66
		c1.63-0.47,2.45-0.56,2.45-0.26c0,0.93-2.03,1.94-6.09,3.02c-4.06,1.08-7.37,1.62-9.94,1.62c-0.99,0-1.9-0.06-2.72-0.18
		c-1.75,2.1-3.97,3.15-6.66,3.15c-1.75,0-2.83-0.76-3.24-2.28c-0.35-1.46,0.15-2.6,1.49-3.42c0.64-0.35,1.4-0.53,2.28-0.53
		c0.99,0,2.63,0.29,4.9,0.88c0.7-1.17,1.1-2.38,1.18-3.64c0.09-1.26-0.22-2.33-0.92-3.24c-0.7-0.9-1.75-1.36-3.15-1.36
		c-2.22,0-4.26,1.65-6.13,4.95c-1.87,3.3-3.4,7.43-4.6,12.39c-1.2,4.96-2.29,10.35-3.29,16.16c-0.99,5.81-1.8,11.2-2.41,16.16
		c-0.61,4.96-1.23,9.11-1.84,12.44c-0.61,3.33-1.15,4.99-1.62,4.99c-2.04,0-3.12-4.72-3.24-14.15c-0.12-9.43,0.32-19.28,1.31-29.56
		c0.99-10.28,1.98-17.31,2.98-21.11c-4.03,2.22-8.2,4.01-12.52,5.39c-4.32,1.37-8.48,2.31-12.48,2.8c-4,0.5-8.03,0.74-12.09,0.74
		c-4.06,0-7.99-0.23-11.78-0.7c-3.8-0.47-7.5-0.99-11.12-1.58c-3.62-0.58-7.15-1.18-10.6-1.8c-3.45-0.61-6.69-1.12-9.72-1.53
		c-3.04-0.41-6.01-0.58-8.93-0.53c-2.92,0.06-5.52,0.38-7.8,0.96c-1.81,0.47-2.86,0.23-3.15-0.7c-0.23-0.88,0.32-1.63,1.66-2.28
		c0.29-0.18,0.64-0.29,1.05-0.35c1.93-0.53,4.03-0.7,6.31-0.53c2.28,0.18,5.01,0.5,8.19,0.96c3.18,0.47,6.42,1.08,9.72,1.84
		c3.3,0.76,6.95,1.44,10.95,2.06c4,0.61,7.97,1.2,11.91,1.75c3.94,0.56,8.12,0.85,12.53,0.88c4.41,0.03,8.7-0.19,12.88-0.66
		c4.17-0.47,8.5-1.4,12.96-2.8c4.47-1.4,8.71-3.24,12.74-5.52c0.82-0.82,1.58-0.99,2.28-0.53c0.35,0.23,0.44,0.53,0.26,0.88
		c-0.23,0.41-0.66,2.83-1.27,7.27c-0.61,4.44-1.23,9.72-1.84,15.85c-0.61,6.13-1.17,12.2-1.66,18.22
		c-0.5,6.01-0.72,11.12-0.66,15.33c0.06,4.2,0.44,6.31,1.14,6.31c0.12,0,0.26-1.23,0.44-3.68c0.17-2.45,0.44-5.64,0.79-9.55
		c0.35-3.91,0.8-8.22,1.36-12.92c0.55-4.7,1.33-9.42,2.32-14.15c0.99-4.73,2.13-9.04,3.42-12.92c1.28-3.88,2.92-7.05,4.91-9.5
		C228.86,1236.12,231.05,1234.89,233.45,1234.89z M231.52,1246.71c-1.05,0-1.55,0.32-1.49,0.96c0,0.58,0.44,0.88,1.31,0.88
		c1.34,0,2.54-0.47,3.59-1.4C233.71,1246.86,232.57,1246.71,231.52,1246.71z"/>
	<path class="st2" d="M274.79,1234.98c1.63,0,2.98,0.35,4.03,1.05c1.05,0.7,1.77,1.61,2.15,2.72c0.38,1.11,0.49,2.31,0.35,3.59
		c-0.15,1.28-0.51,2.51-1.09,3.68c0.41,0.06,0.88,0.09,1.4,0.09c1.93,0.06,4.26-0.23,7.01-0.88c2.74-0.64,4.93-1.2,6.57-1.66
		c1.63-0.47,2.45-0.55,2.45-0.26c0,0.93-2.01,1.94-6.04,3.02c-4.03,1.08-7.33,1.62-9.9,1.62c-0.99,0-1.9-0.06-2.72-0.17
		c-1.81,2.1-4.03,3.15-6.66,3.15c-1.75,0-2.83-0.76-3.24-2.28c-0.35-1.46,0.14-2.6,1.49-3.42c0.64-0.35,1.4-0.53,2.28-0.53
		c0.99,0,2.6,0.29,4.82,0.88c0.7-1.17,1.11-2.38,1.23-3.64c0.12-1.25-0.17-2.33-0.88-3.24c-0.7-0.9-1.75-1.36-3.15-1.36
		c-2.22,0-4.26,1.65-6.13,4.95c-1.87,3.3-3.4,7.43-4.6,12.39c-1.2,4.96-2.31,10.35-3.33,16.16c-1.02,5.81-1.83,11.2-2.41,16.16
		c-0.58,4.96-1.18,9.11-1.8,12.44c-0.61,3.33-1.15,4.99-1.62,4.99c-1.34,0-2.28-2.15-2.8-6.44c-0.53-4.29-0.67-9.53-0.44-15.72
		c0.23-6.19,0.61-12.47,1.14-18.83c0.53-6.37,1.14-11.96,1.84-16.77c0.7-4.82,1.31-7.66,1.84-8.54c0.93-0.93,1.75-1.14,2.45-0.61
		c0.35,0.23,0.44,0.53,0.26,0.88c-0.23,0.41-0.66,2.83-1.27,7.27c-0.61,4.44-1.24,9.72-1.88,15.85c-0.64,6.13-1.2,12.2-1.66,18.22
		c-0.47,6.01-0.69,11.12-0.66,15.33c0.03,4.2,0.43,6.31,1.18,6.31c0.12,0,0.26-1.23,0.44-3.68c0.18-2.45,0.44-5.64,0.79-9.55
		c0.35-3.91,0.8-8.22,1.36-12.92c0.55-4.7,1.33-9.42,2.32-14.15c0.99-4.73,2.13-9.04,3.42-12.92c1.28-3.88,2.92-7.05,4.9-9.5
		C270.2,1236.2,272.39,1234.98,274.79,1234.98z M272.86,1246.8c-1.05,0-1.58,0.32-1.58,0.96c0.06,0.58,0.53,0.88,1.4,0.88
		c1.34,0,2.54-0.47,3.59-1.4C275.05,1246.95,273.91,1246.8,272.86,1246.8z"/>
	<path class="st2" d="M335.31,1253.98c-1.63-0.88-3.27-2.19-4.9-3.94c-1.64-1.75-2.96-3.4-3.99-4.95c-1.02-1.55-2.12-2.92-3.28-4.12
		c-1.17-1.2-2.22-1.8-3.15-1.8c-1.11,0-2.41,0.72-3.9,2.15c-1.49,1.43-2.83,2.99-4.03,4.69c-1.2,1.69-2.54,3.25-4.03,4.69
		c-1.49,1.43-2.79,2.12-3.9,2.06c-2.28-0.12-4.15-1.65-5.61-4.6c-1.46-2.95-2.13-5.66-2.01-8.15c0.12-2.48,0.53-3.93,1.23-4.34
		c0.53,0,0.95,0.73,1.27,2.19c0.32,1.46,0.6,3.05,0.83,4.77c0.23,1.72,0.71,3.3,1.45,4.73c0.73,1.43,1.68,2.15,2.85,2.15
		c0.82,0,1.87-0.69,3.15-2.06c1.28-1.37,2.53-2.9,3.72-4.6c1.2-1.69,2.63-3.24,4.29-4.64c1.66-1.4,3.23-2.1,4.69-2.1
		c1.69,0,3.24,0.64,4.64,1.93c1.4,1.28,2.52,2.76,3.37,4.42c0.85,1.66,1.96,3.49,3.33,5.47c1.37,1.98,2.82,3.47,4.34,4.47
		c2.8,1.87,6.38,3.02,10.73,3.46c4.35,0.44,9.02,0.32,14.01-0.35c4.99-0.67,10.32-1.58,15.99-2.72c5.66-1.14,11.53-2.23,17.6-3.28
		s12.01-1.87,17.82-2.45c5.81-0.58,11.71-0.54,17.69,0.13c5.98,0.67,11.4,2.06,16.25,4.16c0.7,0.35,1.11,0.83,1.23,1.45
		c0.12,0.61-0.06,1.06-0.53,1.36c-0.47,0.29-1.14,0.26-2.01-0.09c-4.73-2.22-9.96-3.72-15.68-4.51c-5.72-0.79-11.37-0.96-16.95-0.53
		c-5.58,0.44-11.27,1.12-17.08,2.06c-5.81,0.93-11.5,1.93-17.08,2.98c-5.58,1.05-10.88,1.9-15.9,2.54
		c-5.02,0.64-9.85,0.79-14.5,0.44C342.62,1256.7,338.64,1255.68,335.31,1253.98z"/>
</g>
<g>
	<path class="st2" d="M328.96,1286.15c-0.91,0.85-2.29,1.28-4.11,1.28h-3.28v6.92h-1.63v-16.24h4.9c1.81,0,3.18,0.43,4.1,1.28
		s1.38,1.98,1.38,3.39C330.33,1284.17,329.88,1285.3,328.96,1286.15z M328.66,1282.78c0-1.08-0.3-1.91-0.91-2.46
		c-0.6-0.56-1.57-0.84-2.9-0.84h-3.28v6.55h3.28C327.39,1286.03,328.66,1284.95,328.66,1282.78z"/>
	<path class="st2" d="M336.32,1282.08c0.73-0.43,1.64-0.65,2.71-0.65v1.7h-0.44c-1.18,0-2.12,0.32-2.83,0.95
		c-0.71,0.64-1.07,1.7-1.07,3.18v7.09h-1.63v-12.69h1.63v2.25C335.04,1283.13,335.58,1282.52,336.32,1282.08z"/>
	<path class="st2" d="M341.44,1278.92c-0.23-0.23-0.35-0.52-0.35-0.86s0.12-0.62,0.35-0.85c0.23-0.22,0.51-0.34,0.84-0.34
		c0.32,0,0.6,0.11,0.84,0.34c0.23,0.22,0.35,0.51,0.35,0.85s-0.12,0.63-0.35,0.86c-0.23,0.23-0.51,0.35-0.84,0.35
		C341.95,1279.27,341.67,1279.15,341.44,1278.92z M343.09,1281.66v12.69h-1.63v-12.69H343.09z"/>
	<path class="st2" d="M356.45,1282.84c0.96,0.94,1.44,2.3,1.44,4.08v7.44h-1.6v-7.25c0-1.38-0.34-2.43-1.03-3.16
		c-0.69-0.73-1.63-1.09-2.82-1.09c-1.22,0-2.2,0.39-2.93,1.16c-0.73,0.77-1.09,1.91-1.09,3.42v6.92h-1.63v-12.69h1.63v2.16
		c0.4-0.77,0.98-1.37,1.74-1.78c0.76-0.41,1.62-0.62,2.58-0.62C354.25,1281.43,355.49,1281.9,356.45,1282.84z"/>
	<path class="st2" d="M363.61,1283.03v7.88c0,0.77,0.15,1.31,0.44,1.6c0.29,0.29,0.81,0.44,1.56,0.44h1.49v1.39h-1.74
		c-1.15,0-2-0.27-2.56-0.8c-0.56-0.53-0.84-1.41-0.84-2.64v-7.88h-1.77v-1.37h1.77v-3.18h1.65v3.18h3.49v1.37H363.61z"/>
	<path class="st2" d="M373.28,1282.33c0.87-0.57,1.92-0.85,3.12-0.85c1.15,0,2.18,0.27,3.1,0.8s1.64,1.29,2.16,2.28
		s0.78,2.13,0.78,3.43c0,1.3-0.26,2.45-0.78,3.44c-0.52,0.99-1.24,1.76-2.16,2.3c-0.92,0.54-1.96,0.81-3.1,0.81
		c-1.19,0-2.23-0.28-3.11-0.85c-0.88-0.57-1.53-1.27-1.93-2.13v8.78h-1.6v-18.68h1.6v2.79
		C371.77,1283.6,372.41,1282.89,373.28,1282.33z M380.18,1285.25c-0.41-0.77-0.97-1.35-1.68-1.75c-0.71-0.4-1.52-0.6-2.42-0.6
		c-0.87,0-1.66,0.21-2.38,0.63c-0.72,0.42-1.29,1.01-1.71,1.79c-0.42,0.77-0.63,1.67-0.63,2.7c0,1.02,0.21,1.92,0.63,2.7
		c0.42,0.77,0.99,1.37,1.71,1.79c0.72,0.42,1.51,0.63,2.38,0.63c0.9,0,1.7-0.2,2.42-0.62c0.71-0.41,1.27-1.01,1.68-1.79
		c0.41-0.78,0.62-1.69,0.62-2.73C380.8,1286.93,380.59,1286.02,380.18,1285.25z"/>
	<path class="st2" d="M385.42,1278.92c-0.23-0.23-0.35-0.52-0.35-0.86s0.12-0.62,0.35-0.85c0.23-0.22,0.51-0.34,0.84-0.34
		c0.32,0,0.6,0.11,0.84,0.34c0.23,0.22,0.35,0.51,0.35,0.85s-0.12,0.63-0.35,0.86c-0.23,0.23-0.51,0.35-0.84,0.35
		C385.93,1279.27,385.66,1279.15,385.42,1278.92z M387.07,1281.66v12.69h-1.63v-12.69H387.07z"/>
	<path class="st2" d="M390.81,1284.56c0.53-0.98,1.25-1.74,2.18-2.28s1.99-0.8,3.18-0.8c1.56,0,2.85,0.39,3.87,1.16
		c1.01,0.77,1.67,1.83,1.96,3.16h-1.74c-0.22-0.91-0.69-1.63-1.41-2.15s-1.61-0.78-2.68-0.78c-0.85,0-1.62,0.19-2.3,0.58
		c-0.68,0.39-1.22,0.96-1.61,1.73c-0.4,0.77-0.59,1.71-0.59,2.82c0,1.12,0.2,2.06,0.59,2.83c0.4,0.77,0.93,1.36,1.61,1.74
		c0.68,0.39,1.45,0.58,2.3,0.58c1.07,0,1.96-0.26,2.68-0.78c0.72-0.52,1.19-1.24,1.41-2.17h1.74c-0.29,1.3-0.95,2.35-1.98,3.14
		c-1.02,0.79-2.31,1.19-3.86,1.19c-1.19,0-2.25-0.27-3.18-0.8c-0.93-0.53-1.66-1.29-2.18-2.28c-0.53-0.98-0.79-2.13-0.79-3.45
		C390.02,1286.69,390.29,1285.54,390.81,1284.56z"/>
	<path class="st2" d="M405.81,1293.52c-0.92-0.67-1.44-1.59-1.55-2.75h1.67c0.08,0.71,0.41,1.29,1.01,1.73
		c0.6,0.44,1.4,0.66,2.41,0.66c0.88,0,1.58-0.21,2.08-0.63c0.5-0.42,0.75-0.94,0.75-1.56c0-0.43-0.14-0.79-0.42-1.07
		c-0.28-0.28-0.63-0.5-1.06-0.66c-0.43-0.16-1-0.34-1.73-0.52c-0.94-0.25-1.71-0.5-2.3-0.74c-0.59-0.25-1.09-0.62-1.5-1.1
		c-0.41-0.49-0.62-1.14-0.62-1.96c0-0.62,0.19-1.19,0.56-1.72s0.9-0.94,1.58-1.25c0.68-0.31,1.46-0.46,2.32-0.46
		c1.36,0,2.46,0.34,3.3,1.03c0.84,0.69,1.29,1.64,1.35,2.85h-1.63c-0.05-0.74-0.34-1.34-0.87-1.8c-0.54-0.46-1.27-0.69-2.2-0.69
		c-0.82,0-1.49,0.19-2,0.58c-0.51,0.39-0.77,0.87-0.77,1.44c0,0.5,0.15,0.9,0.45,1.22c0.3,0.32,0.68,0.57,1.13,0.74
		c0.45,0.18,1.05,0.38,1.81,0.59c0.91,0.25,1.64,0.49,2.18,0.72c0.54,0.23,1.01,0.57,1.39,1.02c0.39,0.45,0.59,1.05,0.6,1.79
		c0,0.68-0.19,1.29-0.56,1.82s-0.89,0.96-1.56,1.27c-0.67,0.31-1.43,0.46-2.3,0.46C407.92,1294.54,406.73,1294.2,405.81,1293.52z"/>
	<path class="st2" d="M426.52,1282.84c0.96,0.94,1.44,2.3,1.44,4.08v7.44h-1.6v-7.25c0-1.38-0.34-2.43-1.03-3.16
		c-0.69-0.73-1.63-1.09-2.82-1.09c-1.22,0-2.2,0.39-2.93,1.16c-0.73,0.77-1.09,1.91-1.09,3.42v6.92h-1.63v-12.69h1.63v2.16
		c0.4-0.77,0.98-1.37,1.74-1.78c0.76-0.41,1.62-0.62,2.58-0.62C424.33,1281.43,425.56,1281.9,426.52,1282.84z"/>
	<path class="st2" d="M433.9,1293.73c-0.95-0.53-1.7-1.29-2.25-2.28c-0.55-0.98-0.82-2.13-0.82-3.45c0-1.32,0.28-2.47,0.84-3.45
		c0.56-0.98,1.32-1.74,2.28-2.28s2.04-0.8,3.23-0.8c1.19,0,2.27,0.27,3.24,0.8c0.97,0.53,1.73,1.29,2.28,2.28s0.82,2.13,0.82,3.45
		c0,1.3-0.28,2.45-0.84,3.44c-0.56,0.99-1.32,1.75-2.3,2.29c-0.98,0.53-2.06,0.8-3.25,0.8S434.85,1294.27,433.9,1293.73z
		 M439.44,1292.55c0.71-0.38,1.29-0.95,1.73-1.72c0.44-0.77,0.66-1.71,0.66-2.82c0-1.12-0.22-2.06-0.65-2.82
		c-0.43-0.77-1.01-1.34-1.72-1.72c-0.71-0.38-1.49-0.57-2.32-0.57s-1.61,0.19-2.32,0.57c-0.71,0.38-1.28,0.95-1.71,1.72
		c-0.43,0.77-0.64,1.71-0.64,2.82c0,1.12,0.21,2.06,0.64,2.82c0.43,0.77,0.99,1.34,1.7,1.72s1.48,0.57,2.31,0.57
		C437.96,1293.12,438.73,1292.93,439.44,1292.55z"/>
	<path class="st2" d="M463.21,1281.66l-3.97,12.69h-1.63l-3.51-10.64l-3.51,10.64h-1.65l-3.97-12.69h1.65l3.16,11.04l3.56-11.04
		h1.63l3.51,11.06l3.14-11.06H463.21z"/>
</g>
</svg>
